src/unit_test/complete_5port_switch_with_riscv.vcd
$date
     Aug 03, 2025       23:31:41
$end

$version
 SystemC 3.0.1-Accellera --- Oct 15 2024 13:47:45
$end

$timescale
     1 ns
$end

$scope module SystemC $end
$var wire    1  aaaaa  clk       $end
$var wire    1  aaaab  rst_n       $end
$var wire    1  aaaac  ext_port0_in_tvalid       $end
$var wire   512  aaaad  ext_port0_in_tdata [511:0]  $end
$var wire   64  aaaae  ext_port0_in_tkeep [63:0]  $end
$var wire   64  aaaaf  ext_port0_in_tuser [63:0]  $end
$var wire    1  aaaag  ext_port0_in_tlast       $end
$var wire    1  aaaah  ext_port0_in_tready       $end
$var wire    1  aaaai  ext_port0_out_tvalid       $end
$var wire   512  aaaaj  ext_port0_out_tdata [511:0]  $end
$var wire   64  aaaak  ext_port0_out_tkeep [63:0]  $end
$var wire   64  aaaal  ext_port0_out_tuser [63:0]  $end
$var wire    1  aaaam  ext_port0_out_tlast       $end
$var wire    1  aaaan  ext_port0_out_tready       $end
$var wire    1  aaaao  ext_port1_in_tvalid       $end
$var wire   512  aaaap  ext_port1_in_tdata [511:0]  $end
$var wire   64  aaaaq  ext_port1_in_tkeep [63:0]  $end
$var wire   64  aaaar  ext_port1_in_tuser [63:0]  $end
$var wire    1  aaaas  ext_port1_in_tlast       $end
$var wire    1  aaaat  ext_port1_in_tready       $end
$var wire    1  aaaau  ext_port1_out_tvalid       $end
$var wire   512  aaaav  ext_port1_out_tdata [511:0]  $end
$var wire   64  aaaaw  ext_port1_out_tkeep [63:0]  $end
$var wire   64  aaaax  ext_port1_out_tuser [63:0]  $end
$var wire    1  aaaay  ext_port1_out_tlast       $end
$var wire    1  aaaaz  ext_port1_out_tready       $end
$var wire    1  aaaba  ext_port2_in_tvalid       $end
$var wire   512  aaabb  ext_port2_in_tdata [511:0]  $end
$var wire   64  aaabc  ext_port2_in_tkeep [63:0]  $end
$var wire   64  aaabd  ext_port2_in_tuser [63:0]  $end
$var wire    1  aaabe  ext_port2_in_tlast       $end
$var wire    1  aaabf  ext_port2_in_tready       $end
$var wire    1  aaabg  ext_port2_out_tvalid       $end
$var wire   512  aaabh  ext_port2_out_tdata [511:0]  $end
$var wire   64  aaabi  ext_port2_out_tkeep [63:0]  $end
$var wire   64  aaabj  ext_port2_out_tuser [63:0]  $end
$var wire    1  aaabk  ext_port2_out_tlast       $end
$var wire    1  aaabl  ext_port2_out_tready       $end
$var wire    1  aaabm  ext_port3_in_tvalid       $end
$var wire   512  aaabn  ext_port3_in_tdata [511:0]  $end
$var wire   64  aaabo  ext_port3_in_tkeep [63:0]  $end
$var wire   64  aaabp  ext_port3_in_tuser [63:0]  $end
$var wire    1  aaabq  ext_port3_in_tlast       $end
$var wire    1  aaabr  ext_port3_in_tready       $end
$var wire    1  aaabs  ext_port3_out_tvalid       $end
$var wire   512  aaabt  ext_port3_out_tdata [511:0]  $end
$var wire   64  aaabu  ext_port3_out_tkeep [63:0]  $end
$var wire   64  aaabv  ext_port3_out_tuser [63:0]  $end
$var wire    1  aaabw  ext_port3_out_tlast       $end
$var wire    1  aaabx  ext_port3_out_tready       $end
$var wire    1  aaaby  eqm4_credit_ready       $end
$var wire    1  aaabz  eqm4_credit_valid       $end
$var wire    1  aaaca  eqm4_axi_ready       $end
$var wire   32  aaacb  eqm4_axi_data [31:0]  $end
$var wire   32  aaacc  eqm4_axi_addr [31:0]  $end
$var wire    1  aaacd  eqm4_axi_valid       $end
$var wire    1  aaace  eqm4_ext_out_tready       $end
$var wire    1  aaacf  eqm4_ext_out_tlast       $end
$var wire   64  aaacg  eqm4_ext_out_tuser [63:0]  $end
$var wire   64  aaach  eqm4_ext_out_tkeep [63:0]  $end
$var wire   512  aaaci  eqm4_ext_out_tdata [511:0]  $end
$var wire    1  aaacj  eqm4_ext_out_tvalid       $end
$var wire    1  aaack  eqm4_int_in_tready       $end
$var wire    1  aaacl  eqm4_int_in_tlast       $end
$var wire    8  aaacm  eqm4_int_in_tdest [7:0]  $end
$var wire   64  aaacn  eqm4_int_in_tuser [63:0]  $end
$var wire   64  aaaco  eqm4_int_in_tkeep [63:0]  $end
$var wire   512  aaacp  eqm4_int_in_tdata [511:0]  $end
$var wire    1  aaacq  eqm4_int_in_tvalid       $end
$var wire    1  aaacr  iqm4_axi_ready       $end
$var wire   32  aaacs  iqm4_axi_data [31:0]  $end
$var wire   32  aaact  iqm4_axi_addr [31:0]  $end
$var wire    1  aaacu  iqm4_axi_valid       $end
$var wire    1  aaacv  iqm4_int_out_tready       $end
$var wire    1  aaacw  iqm4_int_out_tlast       $end
$var wire    8  aaacx  iqm4_int_out_tdest [7:0]  $end
$var wire   64  aaacy  iqm4_int_out_tuser [63:0]  $end
$var wire   64  aaacz  iqm4_int_out_tkeep [63:0]  $end
$var wire   512  aaada  iqm4_int_out_tdata [511:0]  $end
$var wire    1  aaadb  iqm4_int_out_tvalid       $end
$var wire    1  aaadc  iqm4_ext_in_tready       $end
$var wire    1  aaadd  iqm4_ext_in_tlast       $end
$var wire   64  aaade  iqm4_ext_in_tuser [63:0]  $end
$var wire   64  aaadf  iqm4_ext_in_tkeep [63:0]  $end
$var wire   512  aaadg  iqm4_ext_in_tdata [511:0]  $end
$var wire    1  aaadh  iqm4_ext_in_tvalid       $end
$var wire    1  aaadi  eqm3_credit_ready       $end
$var wire    1  aaadj  eqm3_credit_valid       $end
$var wire    1  aaadk  eqm3_axi_ready       $end
$var wire   32  aaadl  eqm3_axi_data [31:0]  $end
$var wire   32  aaadm  eqm3_axi_addr [31:0]  $end
$var wire    1  aaadn  eqm3_axi_valid       $end
$var wire    1  aaado  eqm3_ext_out_tready       $end
$var wire    1  aaadp  eqm3_ext_out_tlast       $end
$var wire   64  aaadq  eqm3_ext_out_tuser [63:0]  $end
$var wire   64  aaadr  eqm3_ext_out_tkeep [63:0]  $end
$var wire   512  aaads  eqm3_ext_out_tdata [511:0]  $end
$var wire    1  aaadt  eqm3_ext_out_tvalid       $end
$var wire    1  aaadu  eqm3_int_in_tready       $end
$var wire    1  aaadv  eqm3_int_in_tlast       $end
$var wire    8  aaadw  eqm3_int_in_tdest [7:0]  $end
$var wire   64  aaadx  eqm3_int_in_tuser [63:0]  $end
$var wire   64  aaady  eqm3_int_in_tkeep [63:0]  $end
$var wire   512  aaadz  eqm3_int_in_tdata [511:0]  $end
$var wire    1  aaaea  eqm3_int_in_tvalid       $end
$var wire    1  aaaeb  iqm3_axi_ready       $end
$var wire   32  aaaec  iqm3_axi_data [31:0]  $end
$var wire   32  aaaed  iqm3_axi_addr [31:0]  $end
$var wire    1  aaaee  iqm3_axi_valid       $end
$var wire    1  aaaef  iqm3_int_out_tready       $end
$var wire    1  aaaeg  iqm3_int_out_tlast       $end
$var wire    8  aaaeh  iqm3_int_out_tdest [7:0]  $end
$var wire   64  aaaei  iqm3_int_out_tuser [63:0]  $end
$var wire   64  aaaej  iqm3_int_out_tkeep [63:0]  $end
$var wire   512  aaaek  iqm3_int_out_tdata [511:0]  $end
$var wire    1  aaael  iqm3_int_out_tvalid       $end
$var wire    1  aaaem  iqm3_ext_in_tready       $end
$var wire    1  aaaen  iqm3_ext_in_tlast       $end
$var wire   64  aaaeo  iqm3_ext_in_tuser [63:0]  $end
$var wire   64  aaaep  iqm3_ext_in_tkeep [63:0]  $end
$var wire   512  aaaeq  iqm3_ext_in_tdata [511:0]  $end
$var wire    1  aaaer  iqm3_ext_in_tvalid       $end
$var wire    1  aaaes  eqm2_credit_ready       $end
$var wire    1  aaaet  eqm2_credit_valid       $end
$var wire    1  aaaeu  eqm2_axi_ready       $end
$var wire   32  aaaev  eqm2_axi_data [31:0]  $end
$var wire   32  aaaew  eqm2_axi_addr [31:0]  $end
$var wire    1  aaaex  eqm2_axi_valid       $end
$var wire    1  aaaey  eqm2_ext_out_tready       $end
$var wire    1  aaaez  eqm2_ext_out_tlast       $end
$var wire   64  aaafa  eqm2_ext_out_tuser [63:0]  $end
$var wire   64  aaafb  eqm2_ext_out_tkeep [63:0]  $end
$var wire   512  aaafc  eqm2_ext_out_tdata [511:0]  $end
$var wire    1  aaafd  eqm2_ext_out_tvalid       $end
$var wire    1  aaafe  eqm2_int_in_tready       $end
$var wire    1  aaaff  eqm2_int_in_tlast       $end
$var wire    8  aaafg  eqm2_int_in_tdest [7:0]  $end
$var wire   64  aaafh  eqm2_int_in_tuser [63:0]  $end
$var wire   64  aaafi  eqm2_int_in_tkeep [63:0]  $end
$var wire   512  aaafj  eqm2_int_in_tdata [511:0]  $end
$var wire    1  aaafk  eqm2_int_in_tvalid       $end
$var wire    1  aaafl  iqm2_axi_ready       $end
$var wire   32  aaafm  iqm2_axi_data [31:0]  $end
$var wire   32  aaafn  iqm2_axi_addr [31:0]  $end
$var wire    1  aaafo  iqm2_axi_valid       $end
$var wire    1  aaafp  iqm2_int_out_tready       $end
$var wire    1  aaafq  iqm2_int_out_tlast       $end
$var wire    8  aaafr  iqm2_int_out_tdest [7:0]  $end
$var wire   64  aaafs  iqm2_int_out_tuser [63:0]  $end
$var wire   64  aaaft  iqm2_int_out_tkeep [63:0]  $end
$var wire   512  aaafu  iqm2_int_out_tdata [511:0]  $end
$var wire    1  aaafv  iqm2_int_out_tvalid       $end
$var wire    1  aaafw  iqm2_ext_in_tready       $end
$var wire    1  aaafx  iqm2_ext_in_tlast       $end
$var wire   64  aaafy  iqm2_ext_in_tuser [63:0]  $end
$var wire   64  aaafz  iqm2_ext_in_tkeep [63:0]  $end
$var wire   512  aaaga  iqm2_ext_in_tdata [511:0]  $end
$var wire    1  aaagb  iqm2_ext_in_tvalid       $end
$var wire    1  aaagc  eqm1_credit_ready       $end
$var wire    1  aaagd  eqm1_credit_valid       $end
$var wire    1  aaage  eqm1_axi_ready       $end
$var wire   32  aaagf  eqm1_axi_data [31:0]  $end
$var wire   32  aaagg  eqm1_axi_addr [31:0]  $end
$var wire    1  aaagh  eqm1_axi_valid       $end
$var wire    1  aaagi  eqm1_ext_out_tready       $end
$var wire    1  aaagj  eqm1_ext_out_tlast       $end
$var wire   64  aaagk  eqm1_ext_out_tuser [63:0]  $end
$var wire   64  aaagl  eqm1_ext_out_tkeep [63:0]  $end
$var wire   512  aaagm  eqm1_ext_out_tdata [511:0]  $end
$var wire    1  aaagn  eqm1_ext_out_tvalid       $end
$var wire    1  aaago  eqm1_int_in_tready       $end
$var wire    1  aaagp  eqm1_int_in_tlast       $end
$var wire    8  aaagq  eqm1_int_in_tdest [7:0]  $end
$var wire   64  aaagr  eqm1_int_in_tuser [63:0]  $end
$var wire   64  aaags  eqm1_int_in_tkeep [63:0]  $end
$var wire   512  aaagt  eqm1_int_in_tdata [511:0]  $end
$var wire    1  aaagu  eqm1_int_in_tvalid       $end
$var wire    1  aaagv  iqm1_axi_ready       $end
$var wire   32  aaagw  iqm1_axi_data [31:0]  $end
$var wire   32  aaagx  iqm1_axi_addr [31:0]  $end
$var wire    1  aaagy  iqm1_axi_valid       $end
$var wire    1  aaagz  iqm1_int_out_tready       $end
$var wire    1  aaaha  iqm1_int_out_tlast       $end
$var wire    8  aaahb  iqm1_int_out_tdest [7:0]  $end
$var wire   64  aaahc  iqm1_int_out_tuser [63:0]  $end
$var wire   64  aaahd  iqm1_int_out_tkeep [63:0]  $end
$var wire   512  aaahe  iqm1_int_out_tdata [511:0]  $end
$var wire    1  aaahf  iqm1_int_out_tvalid       $end
$var wire    1  aaahg  iqm1_ext_in_tready       $end
$var wire    1  aaahh  iqm1_ext_in_tlast       $end
$var wire   64  aaahi  iqm1_ext_in_tuser [63:0]  $end
$var wire   64  aaahj  iqm1_ext_in_tkeep [63:0]  $end
$var wire   512  aaahk  iqm1_ext_in_tdata [511:0]  $end
$var wire    1  aaahl  iqm1_ext_in_tvalid       $end
$var wire    1  aaahm  eqm0_credit_ready       $end
$var wire    1  aaahn  eqm0_credit_valid       $end
$var wire    1  aaaho  eqm0_axi_ready       $end
$var wire   32  aaahp  eqm0_axi_data [31:0]  $end
$var wire   32  aaahq  eqm0_axi_addr [31:0]  $end
$var wire    1  aaahr  eqm0_axi_valid       $end
$var wire    1  aaahs  eqm0_ext_out_tready       $end
$var wire    1  aaaht  eqm0_ext_out_tlast       $end
$var wire   64  aaahu  eqm0_ext_out_tuser [63:0]  $end
$var wire   64  aaahv  eqm0_ext_out_tkeep [63:0]  $end
$var wire   512  aaahw  eqm0_ext_out_tdata [511:0]  $end
$var wire    1  aaahx  eqm0_ext_out_tvalid       $end
$var wire    1  aaahy  eqm0_int_in_tready       $end
$var wire    1  aaahz  eqm0_int_in_tlast       $end
$var wire    8  aaaia  eqm0_int_in_tdest [7:0]  $end
$var wire   64  aaaib  eqm0_int_in_tuser [63:0]  $end
$var wire   64  aaaic  eqm0_int_in_tkeep [63:0]  $end
$var wire   512  aaaid  eqm0_int_in_tdata [511:0]  $end
$var wire    1  aaaie  eqm0_int_in_tvalid       $end
$var wire    1  aaaif  iqm0_axi_ready       $end
$var wire   32  aaaig  iqm0_axi_data [31:0]  $end
$var wire   32  aaaih  iqm0_axi_addr [31:0]  $end
$var wire    1  aaaii  iqm0_axi_valid       $end
$var wire    1  aaaij  iqm0_int_out_tready       $end
$var wire    1  aaaik  iqm0_int_out_tlast       $end
$var wire    8  aaail  iqm0_int_out_tdest [7:0]  $end
$var wire   64  aaaim  iqm0_int_out_tuser [63:0]  $end
$var wire   64  aaain  iqm0_int_out_tkeep [63:0]  $end
$var wire   512  aaaio  iqm0_int_out_tdata [511:0]  $end
$var wire    1  aaaip  iqm0_int_out_tvalid       $end
$var wire    1  aaaiq  iqm0_ext_in_tready       $end
$var wire    1  aaair  iqm0_ext_in_tlast       $end
$var wire   64  aaais  iqm0_ext_in_tuser [63:0]  $end
$var wire   64  aaait  iqm0_ext_in_tkeep [63:0]  $end
$var wire   512  aaaiu  iqm0_ext_in_tdata [511:0]  $end
$var wire    1  aaaiv  iqm0_ext_in_tvalid       $end
$var wire    1  aaaiw  router_axi_ready       $end
$var wire   32  aaaix  router_axi_data [31:0]  $end
$var wire   32  aaaiy  router_axi_addr [31:0]  $end
$var wire    1  aaaiz  router_axi_valid       $end
$upscope $end
$enddefinitions  $end

$comment
All initial values are dumped below at time 0 sec = 0 timescale units.
$end

$dumpvars
1aaaaa
0aaaab
0aaaac
b0 aaaad
b0 aaaae
b0 aaaaf
0aaaag
1aaaah
0aaaai
b0 aaaaj
b0 aaaak
b0 aaaal
0aaaam
1aaaan
0aaaao
b0 aaaap
b0 aaaaq
b0 aaaar
0aaaas
1aaaat
0aaaau
b0 aaaav
b0 aaaaw
b0 aaaax
0aaaay
1aaaaz
0aaaba
b0 aaabb
b0 aaabc
b0 aaabd
0aaabe
1aaabf
0aaabg
b0 aaabh
b0 aaabi
b0 aaabj
0aaabk
1aaabl
0aaabm
b0 aaabn
b0 aaabo
b0 aaabp
0aaabq
1aaabr
0aaabs
b0 aaabt
b0 aaabu
b0 aaabv
0aaabw
1aaabx
1aaaby
0aaabz
1aaaca
b0 aaacb
b0 aaacc
0aaacd
1aaace
0aaacf
b0 aaacg
b0 aaach
b0 aaaci
0aaacj
1aaack
0aaacl
b0 aaacm
b0 aaacn
b0 aaaco
b0 aaacp
0aaacq
1aaacr
b0 aaacs
b0 aaact
0aaacu
1aaacv
0aaacw
b0 aaacx
b0 aaacy
b0 aaacz
b0 aaada
0aaadb
1aaadc
0aaadd
b0 aaade
b0 aaadf
b0 aaadg
0aaadh
1aaadi
0aaadj
1aaadk
b0 aaadl
b0 aaadm
0aaadn
1aaado
0aaadp
b0 aaadq
b0 aaadr
b0 aaads
0aaadt
1aaadu
0aaadv
b0 aaadw
b0 aaadx
b0 aaady
b0 aaadz
0aaaea
1aaaeb
b0 aaaec
b0 aaaed
0aaaee
1aaaef
0aaaeg
b0 aaaeh
b0 aaaei
b0 aaaej
b0 aaaek
0aaael
1aaaem
0aaaen
b0 aaaeo
b0 aaaep
b0 aaaeq
0aaaer
1aaaes
0aaaet
1aaaeu
b0 aaaev
b0 aaaew
0aaaex
1aaaey
0aaaez
b0 aaafa
b0 aaafb
b0 aaafc
0aaafd
1aaafe
0aaaff
b0 aaafg
b0 aaafh
b0 aaafi
b0 aaafj
0aaafk
1aaafl
b0 aaafm
b0 aaafn
0aaafo
1aaafp
0aaafq
b0 aaafr
b0 aaafs
b0 aaaft
b0 aaafu
0aaafv
1aaafw
0aaafx
b0 aaafy
b0 aaafz
b0 aaaga
0aaagb
1aaagc
0aaagd
1aaage
b0 aaagf
b0 aaagg
0aaagh
1aaagi
0aaagj
b0 aaagk
b0 aaagl
b0 aaagm
0aaagn
1aaago
0aaagp
b0 aaagq
b0 aaagr
b0 aaags
b0 aaagt
0aaagu
1aaagv
b0 aaagw
b0 aaagx
0aaagy
1aaagz
0aaaha
b0 aaahb
b0 aaahc
b0 aaahd
b0 aaahe
0aaahf
1aaahg
0aaahh
b0 aaahi
b0 aaahj
b0 aaahk
0aaahl
1aaahm
0aaahn
1aaaho
b0 aaahp
b0 aaahq
0aaahr
0aaahs
0aaaht
b0 aaahu
b0 aaahv
b0 aaahw
0aaahx
1aaahy
0aaahz
b0 aaaia
b0 aaaib
b0 aaaic
b0 aaaid
0aaaie
1aaaif
b0 aaaig
b0 aaaih
0aaaii
1aaaij
0aaaik
b0 aaail
b0 aaaim
b0 aaain
b0 aaaio
0aaaip
1aaaiq
0aaair
b0 aaais
b0 aaait
b0 aaaiu
0aaaiv
0aaaiw
b0 aaaix
b0 aaaiy
0aaaiz
$end

#5
0aaaaa

#10
1aaaaa

#15
0aaaaa

#20
1aaaaa

#25
0aaaaa

#30
1aaaaa

#35
0aaaaa

#40
1aaaaa

#45
0aaaaa

#50
1aaaaa

#55
0aaaaa

#60
1aaaaa

#65
0aaaaa

#70
1aaaaa

#75
0aaaaa

#80
1aaaaa

#85
0aaaaa

#90
1aaaaa

#95
0aaaaa

#100
1aaaaa
1aaaab
1aaahs

#105
0aaaaa

#110
1aaaaa

#115
0aaaaa

#120
1aaaaa

#125
0aaaaa

#130
1aaaaa

#135
0aaaaa

#140
1aaaaa

#145
0aaaaa

#150
1aaaaa

#155
0aaaaa

#160
1aaaaa

#165
0aaaaa

#170
1aaaaa

#175
0aaaaa

#180
1aaaaa

#185
0aaaaa

#190
1aaaaa

#195
0aaaaa

#200
1aaaaa

#205
0aaaaa

#210
1aaaaa

#215
0aaaaa

#220
1aaaaa

#225
0aaaaa

#230
1aaaaa

#235
0aaaaa

#240
1aaaaa

#245
0aaaaa

#250
1aaaaa
1aaaiw
b10001000 aaaiy
1aaaiz

#251
0aaaiz

#255
0aaaaa

#260
1aaaaa

#265
0aaaaa

#270
1aaaaa

#275
0aaaaa

#280
1aaaaa

#285
0aaaaa

#290
1aaaaa

#295
0aaaaa

#300
1aaaaa

#301
b10000000000000001 aaaix
1aaaiz

#302
0aaaiz

#305
0aaaaa

#310
1aaaaa

#315
0aaaaa

#320
1aaaaa

#325
0aaaaa

#330
1aaaaa

#335
0aaaaa

#340
1aaaaa

#345
0aaaaa

#350
1aaaaa

#352
b100000000000000010 aaaix
1aaaiz

#353
0aaaiz

#355
0aaaaa

#360
1aaaaa

#365
0aaaaa

#370
1aaaaa

#375
0aaaaa

#380
1aaaaa

#385
0aaaaa

#390
1aaaaa

#395
0aaaaa

#400
1aaaaa

#403
b110000000000000011 aaaix
1aaaiz

#404
0aaaiz

#405
0aaaaa

#410
1aaaaa

#415
0aaaaa

#420
1aaaaa

#425
0aaaaa

#430
1aaaaa

#435
0aaaaa

#440
1aaaaa

#445
0aaaaa

#450
1aaaaa

#454
b1000000000000000100 aaaix
1aaaiz

#455
0aaaaa
0aaaiz

#460
1aaaaa

#465
0aaaaa

#470
1aaaaa

#475
0aaaaa

#480
1aaaaa

#485
0aaaaa

#490
1aaaaa

#495
0aaaaa

#500
1aaaaa

#505
0aaaaa

#510
1aaaaa

#515
0aaaaa

#520
1aaaaa

#525
0aaaaa

#530
1aaaaa

#535
0aaaaa

#540
1aaaaa

#545
0aaaaa

#550
1aaaaa

#555
0aaaaa

#560
1aaaaa

#565
0aaaaa

#570
1aaaaa

#575
0aaaaa

#580
1aaaaa

#585
0aaaaa

#590
1aaaaa

#595
0aaaaa

#600
1aaaaa

#605
0aaaaa

#610
1aaaaa

#615
0aaaaa

#620
1aaaaa

#625
0aaaaa

#630
1aaaaa

#635
0aaaaa

#640
1aaaaa

#645
0aaaaa

#650
1aaaaa

#655
0aaaaa
1aaaac
b101110001011000010101000101000001001100010010000100010001000000001111000011100000110100001100000010110000101000001001000010000000011100000110000001010000010000000011000000100000000100000000 aaaad
b111111111111111111111111 aaaae
b10000000000011000 aaaaf
1aaaag
1aaahh
b10000000000011000 aaahi
b111111111111111111111111 aaahj
b101110001011000010101000101000001001100010010000100010001000000001111000011100000110100001100000010110000101000001001000010000000011100000110000001010000010000000011000000100000000100000000 aaahk
1aaahl

#660
1aaaaa
0aaaac
b0 aaaad
b0 aaaae
b0 aaaaf
0aaaag
0aaahh
b0 aaahi
b0 aaahj
b0 aaahk
0aaahl

#665
0aaaaa

#670
1aaaaa

#675
0aaaaa

#680
1aaaaa
1aaaha
b10000000000011000 aaahc
b111111111111111111111111 aaahd
b101110001011000010101000101000001001100010010000100010001000000001111000011100000110100001100000010110000101000001001000010000000011100000110000001010000010000000011000000100000000100000000 aaahe
1aaahf

#685
0aaaaa

#690
1aaaaa
0aaaha
0aaahf
1aaahz
b10000000000011000 aaaib
b111111111111111111111111 aaaic
b101110001011000010101000101000001001100010010000100010001000000001111000011100000110100001100000010110000101000001001000010000000011100000110000001010000010000000011000000100000000100000000 aaaid
1aaaie

#695
0aaaaa

#700
1aaaaa

#705
0aaaaa

#710
1aaaaa

#715
0aaaaa

#720
1aaaaa
1aaaht
b10000000000011000 aaahu
b111111111111111111111111 aaahv
b101110001011000010101000101000001001100010010000100010001000000001111000011100000110100001100000010110000101000001001000010000000011100000110000001010000010000000011000000100000000100000000 aaahw
1aaahx

#725
0aaaaa

#730
1aaaaa

#735
0aaaaa

#740
1aaaaa

#745
0aaaaa

#750
1aaaaa

#755
0aaaaa

#760
1aaaaa

#765
0aaaaa

#770
1aaaaa

#775
0aaaaa

#780
1aaaaa

#785
0aaaaa

#790
1aaaaa

#795
0aaaaa

#800
1aaaaa

#805
0aaaaa

#810
1aaaaa

#815
0aaaaa

#820
1aaaaa

#825
0aaaaa

#830
1aaaaa

#835
0aaaaa

#840
1aaaaa

#845
0aaaaa

#850
1aaaaa

#855
0aaaaa

#860
1aaaaa

#865
0aaaaa

#870
1aaaaa

#875
0aaaaa

#880
1aaaaa

#885
0aaaaa

#890
1aaaaa
0aaahs

#895
0aaaaa

#900
1aaaaa
1aaahs

