sv/build/tb_ingress_queue_manager.vcd
$version Generated by VerilatedVcd $end
$timescale 1ps $end
 $scope module TOP $end
  $scope module bus_interfaces_pkg $end
   $var wire 32 !" AXIS_DATA_WIDTH_DEFAULT [31:0] $end
   $var wire 32 "" AXIS_KEEP_WIDTH_DEFAULT [31:0] $end
   $var wire 32 !" AXIS_USER_WIDTH_DEFAULT [31:0] $end
   $var wire 32 #" AXI_ADDR_WIDTH_DEFAULT [31:0] $end
   $var wire 32 #" AXI_DATA_WIDTH_DEFAULT [31:0] $end
  $upscope $end
  $scope module tb_ingress_queue_manager $end
   $var wire 32 S! AXIS_DATA_WIDTH [31:0] $end
   $var wire 32 T! AXIS_KEEP_WIDTH [31:0] $end
   $var wire 32 S! AXIS_USER_WIDTH [31:0] $end
   $var wire 32 U! BUFFER_SIZE [31:0] $end
   $var wire 32 V! MAX_PACKET_SIZE [31:0] $end
   $var wire 32 W! EXTERNAL_HEADER_SIZE [31:0] $end
   $var wire 32 X! DEFAULT_CREDITS [31:0] $end
   $var wire 32 T! MAX_QUEUES_PER_PORT [31:0] $end
   $var wire 32 Y! MAX_CREDITS_PER_QUEUE [31:0] $end
   $var wire 1 Q! clk $end
   $var wire 1 # rst_n $end
   $var wire 138 $ axis_in_m2s [137:0] $end
   $var wire 1 x axis_in_s2m [0:0] $end
   $var wire 1 Z! internal_valid $end
   $var wire 512 [! internal_packet_data [511:0] $end
   $var wire 1 o internal_ready $end
   $var wire 1 k! axi_master_valid $end
   $var wire 32 l! axi_master_addr [31:0] $end
   $var wire 32 m! axi_master_data [31:0] $end
   $var wire 1 ) axi_master_ready $end
   $var wire 1 * axi_slave_valid $end
   $var wire 32 + axi_slave_addr [31:0] $end
   $var wire 32 , axi_slave_data [31:0] $end
   $var wire 1 n! axi_slave_ready $end
   $var wire 32 o! test_phase [31:0] $end
   $var wire 32 p cycle_count [31:0] $end
   $var wire 1 p! internal_ready_control $end
   $var wire 32 - total_packets_sent [31:0] $end
   $var wire 32 o! packets_processed [31:0] $end
   $var wire 138 y internal_out_m2s [137:0] $end
   $var wire 1 R! internal_out_s2m [0:0] $end
   $var wire 65 q! axi_out_m2s [64:0] $end
   $var wire 1 q axi_out_s2m [0:0] $end
   $var wire 65 r axi_in_m2s [64:0] $end
   $var wire 1 u axi_in_s2m [0:0] $end
   $var wire 8 t! port_id [7:0] $end
   $var wire 1 . axis_in_m2s_dot_tvalid $end
   $var wire 64 / axis_in_m2s_dot_tdata [63:0] $end
   $var wire 8 1 axis_in_m2s_dot_tkeep [7:0] $end
   $var wire 64 2 axis_in_m2s_dot_tuser [63:0] $end
   $var wire 1 4 axis_in_m2s_dot_tlast $end
   $var wire 1 x axis_in_s2m_dot_tready $end
   $var wire 1 ~ internal_out_m2s_dot_tvalid $end
   $var wire 64 !! internal_out_m2s_dot_tdata [63:0] $end
   $var wire 8 #! internal_out_m2s_dot_tkeep [7:0] $end
   $var wire 64 $! internal_out_m2s_dot_tuser [63:0] $end
   $var wire 1 &! internal_out_m2s_dot_tlast $end
   $var wire 1 R! internal_out_s2m_dot_tready $end
   $var wire 1 u! axi_out_m2s_dot_valid $end
   $var wire 32 v! axi_out_m2s_dot_addr [31:0] $end
   $var wire 32 v! axi_out_m2s_dot_data [31:0] $end
   $var wire 1 q axi_out_s2m_dot_ready $end
   $var wire 1 u axi_in_m2s_dot_valid $end
   $var wire 32 v axi_in_m2s_dot_addr [31:0] $end
   $var wire 32 w axi_in_m2s_dot_data [31:0] $end
   $var wire 1 u axi_in_s2m_dot_ready $end
   $var wire 64 5 test_axis_reception__Vstatic__header_data [63:0] $end
   $var wire 8 7 test_axis_reception__Vstatic__packet_data[0] [7:0] $end
   $var wire 8 8 test_axis_reception__Vstatic__packet_data[1] [7:0] $end
   $var wire 8 9 test_axis_reception__Vstatic__packet_data[2] [7:0] $end
   $var wire 8 : test_axis_reception__Vstatic__packet_data[3] [7:0] $end
   $var wire 8 ; test_axis_reception__Vstatic__packet_data[4] [7:0] $end
   $var wire 8 < test_axis_reception__Vstatic__packet_data[5] [7:0] $end
   $var wire 8 = test_axis_reception__Vstatic__packet_data[6] [7:0] $end
   $var wire 8 > test_axis_reception__Vstatic__packet_data[7] [7:0] $end
   $var wire 8 ? test_axis_reception__Vstatic__packet_data[8] [7:0] $end
   $var wire 8 @ test_axis_reception__Vstatic__packet_data[9] [7:0] $end
   $var wire 8 A test_axis_reception__Vstatic__packet_data[10] [7:0] $end
   $var wire 8 B test_axis_reception__Vstatic__packet_data[11] [7:0] $end
   $var wire 8 C test_axis_reception__Vstatic__packet_data[12] [7:0] $end
   $var wire 8 D test_axis_reception__Vstatic__packet_data[13] [7:0] $end
   $var wire 8 E test_axis_reception__Vstatic__packet_data[14] [7:0] $end
   $var wire 8 F test_axis_reception__Vstatic__packet_data[15] [7:0] $end
   $var wire 64 G test_internal_header_processing__Vstatic__header_data [63:0] $end
   $var wire 8 I test_internal_header_processing__Vstatic__packet_data[0] [7:0] $end
   $var wire 8 J test_internal_header_processing__Vstatic__packet_data[1] [7:0] $end
   $var wire 8 K test_internal_header_processing__Vstatic__packet_data[2] [7:0] $end
   $var wire 8 L test_internal_header_processing__Vstatic__packet_data[3] [7:0] $end
   $var wire 8 M test_internal_header_processing__Vstatic__packet_data[4] [7:0] $end
   $var wire 8 N test_internal_header_processing__Vstatic__packet_data[5] [7:0] $end
   $var wire 8 O test_internal_header_processing__Vstatic__packet_data[6] [7:0] $end
   $var wire 8 P test_internal_header_processing__Vstatic__packet_data[7] [7:0] $end
   $var wire 64 Q test_credit_processing__Vstatic__header_data [63:0] $end
   $var wire 8 S test_credit_processing__Vstatic__packet_data[0] [7:0] $end
   $var wire 8 T test_credit_processing__Vstatic__packet_data[1] [7:0] $end
   $var wire 8 U test_credit_processing__Vstatic__packet_data[2] [7:0] $end
   $var wire 8 V test_credit_processing__Vstatic__packet_data[3] [7:0] $end
   $var wire 64 W test_packet_conversion__Vstatic__header_data [63:0] $end
   $var wire 8 Y test_packet_conversion__Vstatic__packet_data[0] [7:0] $end
   $var wire 8 Z test_packet_conversion__Vstatic__packet_data[1] [7:0] $end
   $var wire 8 [ test_packet_conversion__Vstatic__packet_data[2] [7:0] $end
   $var wire 8 \ test_packet_conversion__Vstatic__packet_data[3] [7:0] $end
   $var wire 8 ] test_packet_conversion__Vstatic__packet_data[4] [7:0] $end
   $var wire 8 ^ test_packet_conversion__Vstatic__packet_data[5] [7:0] $end
   $var wire 8 _ test_packet_conversion__Vstatic__packet_data[6] [7:0] $end
   $var wire 8 ` test_packet_conversion__Vstatic__packet_data[7] [7:0] $end
   $var wire 8 a test_packet_conversion__Vstatic__packet_data[8] [7:0] $end
   $var wire 8 b test_packet_conversion__Vstatic__packet_data[9] [7:0] $end
   $var wire 8 c test_packet_conversion__Vstatic__packet_data[10] [7:0] $end
   $var wire 8 d test_packet_conversion__Vstatic__packet_data[11] [7:0] $end
   $var wire 8 e test_packet_conversion__Vstatic__packet_data[12] [7:0] $end
   $var wire 8 f test_packet_conversion__Vstatic__packet_data[13] [7:0] $end
   $var wire 8 g test_packet_conversion__Vstatic__packet_data[14] [7:0] $end
   $var wire 8 h test_packet_conversion__Vstatic__packet_data[15] [7:0] $end
   $var wire 64 i test_internal_transmission__Vstatic__header_data [63:0] $end
   $var wire 8 k test_internal_transmission__Vstatic__packet_data[0] [7:0] $end
   $var wire 8 l test_internal_transmission__Vstatic__packet_data[1] [7:0] $end
   $var wire 8 m test_internal_transmission__Vstatic__packet_data[2] [7:0] $end
   $var wire 8 n test_internal_transmission__Vstatic__packet_data[3] [7:0] $end
   $scope module dut $end
    $var wire 32 S! AXIS_DATA_WIDTH [31:0] $end
    $var wire 32 T! AXIS_KEEP_WIDTH [31:0] $end
    $var wire 32 S! AXIS_USER_WIDTH [31:0] $end
    $var wire 32 T! AXIS_DEST_WIDTH [31:0] $end
    $var wire 32 T! MAX_QUEUES_PER_PORT [31:0] $end
    $var wire 32 w! QUEUE_DEPTH [31:0] $end
    $var wire 32 V! MAX_PACKET_SIZE [31:0] $end
    $var wire 32 X! DEFAULT_CREDITS [31:0] $end
    $var wire 32 U! MAX_CREDITS_PER_QUEUE [31:0] $end
    $var wire 32 x! MAX_GLOBAL_PORTS [31:0] $end
    $var wire 32 U! BUFFER_SIZE [31:0] $end
    $var wire 32 y! BUFFER_ADDR_WIDTH [31:0] $end
    $var wire 1 Q! clk $end
    $var wire 1 # rst_n $end
    $var wire 138 $ axis_in_m2s [137:0] $end
    $var wire 1 x axis_in_s2m [0:0] $end
    $var wire 138 y internal_out_m2s [137:0] $end
    $var wire 1 R! internal_out_s2m [0:0] $end
    $var wire 65 q! axi_out_m2s [64:0] $end
    $var wire 1 q axi_out_s2m [0:0] $end
    $var wire 65 r axi_in_m2s [64:0] $end
    $var wire 1 u axi_in_s2m [0:0] $end
    $var wire 8 t! port_id [7:0] $end
    $var wire 1 . axis_tvalid $end
    $var wire 64 / axis_tdata [63:0] $end
    $var wire 8 1 axis_tkeep [7:0] $end
    $var wire 64 2 axis_tuser [63:0] $end
    $var wire 1 4 axis_tlast $end
    $var wire 1 x axis_tready $end
    $var wire 1 ~ internal_tvalid $end
    $var wire 64 !! internal_tdata [63:0] $end
    $var wire 8 #! internal_tkeep [7:0] $end
    $var wire 64 $! internal_tuser [63:0] $end
    $var wire 8 z! internal_tdest [7:0] $end
    $var wire 1 &! internal_tlast $end
    $var wire 1 R! internal_tready $end
    $var wire 1 . axis_in_m2s_dot_tvalid $end
    $var wire 64 / axis_in_m2s_dot_tdata [63:0] $end
    $var wire 8 1 axis_in_m2s_dot_tkeep [7:0] $end
    $var wire 64 2 axis_in_m2s_dot_tuser [63:0] $end
    $var wire 1 4 axis_in_m2s_dot_tlast $end
    $var wire 1 x axis_in_s2m_dot_tready $end
    $var wire 1 ~ internal_out_m2s_dot_tvalid $end
    $var wire 64 !! internal_out_m2s_dot_tdata [63:0] $end
    $var wire 8 #! internal_out_m2s_dot_tkeep [7:0] $end
    $var wire 64 $! internal_out_m2s_dot_tuser [63:0] $end
    $var wire 1 &! internal_out_m2s_dot_tlast $end
    $var wire 1 R! internal_out_s2m_dot_tready $end
    $var wire 1 u axi_in_m2s_dot_valid $end
    $var wire 32 v axi_in_m2s_dot_addr [31:0] $end
    $var wire 32 w axi_in_m2s_dot_data [31:0] $end
    $var wire 1 u axi_in_s2m_dot_ready $end
    $var wire 1 u! axi_out_m2s_dot_valid $end
    $var wire 32 v! axi_out_m2s_dot_addr [31:0] $end
    $var wire 32 v! axi_out_m2s_dot_data [31:0] $end
    $var wire 1 q axi_out_s2m_dot_ready $end
    $var wire 2 '! fsm_axis_rx_state [1:0] $end
    $var wire 2 (! fsm_processing_state [1:0] $end
    $var wire 2 )! fsm_internal_tx_state [1:0] $end
    $var wire 1 *! fsm_rx_idle $end
    $var wire 1 +! fsm_rx_receiving $end
    $var wire 1 ,! fsm_rx_processing $end
    $var wire 1 -! fsm_tx_idle $end
    $var wire 1 .! fsm_tx_transmitting $end
    $var wire 1 /! packet_assembly_active $end
    $var wire 1 0! tx_active $end
    $var wire 2 {! IDLE [1:0] $end
    $var wire 2 |! RECEIVING [1:0] $end
    $var wire 2 }! PROCESSING [1:0] $end
    $var wire 2 ~! TRANSMITTING [1:0] $end
    $var wire 2 {! PKT_DATA [1:0] $end
    $var wire 2 |! PKT_CREDIT [1:0] $end
    $var wire 2 }! PKT_CONTROL [1:0] $end
    $var wire 2 '! axis_rx_state [1:0] $end
    $var wire 2 (! processing_state [1:0] $end
    $var wire 2 )! internal_tx_state [1:0] $end
    $var wire 1 /! packet_in_assembly $end
    $var wire 16 1! current_packet_size [15:0] $end
    $var wire 64 2! current_header [63:0] $end
    $var wire 1 4! lookup_table_initialized $end
    $var wire 64 5! total_packets_processed [63:0] $end
    $var wire 64 7! total_credits_added [63:0] $end
    $var wire 16 9! tx_packet_size [15:0] $end
    $var wire 64 :! tx_packet_header [63:0] $end
    $var wire 1 0! tx_packet_valid $end
    $var wire 16 <! tx_beat_count [15:0] $end
    $var wire 16 =! tx_total_beats [15:0] $end
    $var wire 1 >! beat_tvalid $end
    $var wire 64 ?! beat_tdata [63:0] $end
    $var wire 8 A! beat_tkeep [7:0] $end
    $var wire 64 B! beat_tuser [63:0] $end
    $var wire 32 D! i [31:0] $end
    $var wire 32 E! j [31:0] $end
    $var wire 8 F! process_received_packet__Vstatic__queue_id [7:0] $end
    $var wire 8 G! process_received_packet__Vstatic__local_dest_port [7:0] $end
    $var wire 12 H! process_received_packet__Vstatic__global_dest_port [11:0] $end
    $var wire 8 I! enqueue_packet__Vstatic__tail_idx [7:0] $end
    $var wire 8 J! dequeue_packet__Vstatic__head_idx [7:0] $end
    $var wire 16 K! send_internal_beat__Vstatic__byte_offset [15:0] $end
    $var wire 16 L! send_internal_beat__Vstatic__bytes_remaining [15:0] $end
    $var wire 16 M! send_internal_beat__Vstatic__bytes_in_beat [15:0] $end
    $var wire 32 N! send_internal_beat__Vstatic__b [31:0] $end
    $var wire 8 t! current_port_id_dot_debug [7:0] $end
    $var wire 32 O! total_packets_processed_dot_debug [31:0] $end
    $var wire 32 P! total_credits_added_dot_debug [31:0] $end
   $upscope $end
  $upscope $end
 $upscope $end
$enddefinitions $end


#0
0#
b000000000000000000000000000000000000000000000000000000000000000000000000000000000000000000000000000000000000000000000000000000000000000000 $
1)
0*
b00000000000000000000000000000000 +
b00000000000000000000000000000000 ,
b00000000000000000000000000000000 -
0.
b0000000000000000000000000000000000000000000000000000000000000000 /
b00000000 1
b0000000000000000000000000000000000000000000000000000000000000000 2
04
b0000000000000000000000000000000000000000000000000000000000000000 5
b00000000 7
b00000000 8
b00000000 9
b00000000 :
b00000000 ;
b00000000 <
b00000000 =
b00000000 >
b00000000 ?
b00000000 @
b00000000 A
b00000000 B
b00000000 C
b00000000 D
b00000000 E
b00000000 F
b0000000000000000000000000000000000000000000000000000000000000000 G
b00000000 I
b00000000 J
b00000000 K
b00000000 L
b00000000 M
b00000000 N
b00000000 O
b00000000 P
b0000000000000000000000000000000000000000000000000000000000000000 Q
b00000000 S
b00000000 T
b00000000 U
b00000000 V
b0000000000000000000000000000000000000000000000000000000000000000 W
b00000000 Y
b00000000 Z
b00000000 [
b00000000 \
b00000000 ]
b00000000 ^
b00000000 _
b00000000 `
b00000000 a
b00000000 b
b00000000 c
b00000000 d
b00000000 e
b00000000 f
b00000000 g
b00000000 h
b0000000000000000000000000000000000000000000000000000000000000000 i
b00000000 k
b00000000 l
b00000000 m
b00000000 n
0o
b00000000000000000000000000000000 p
0q
b00000000000000000000000000000000000000000000000000000000000000000 r
0u
b00000000000000000000000000000000 v
b00000000000000000000000000000000 w
0x
b000000000000000000000000000000000000000000000000000000000000000000000000000000000000000000000000000000000000000000000000000000000000000000 y
0~
b0000000000000000000000000000000000000000000000000000000000000000 !!
b00000000 #!
b0000000000000000000000000000000000000000000000000000000000000000 $!
0&!
b00 '!
b00 (!
b00 )!
1*!
0+!
0,!
1-!
0.!
0/!
00!
b0000000000000000 1!
b0000000000000000000000000000000000000000000000000000000000000000 2!
04!
b0000000000000000000000000000000000000000000000000000000000000000 5!
b0000000000000000000000000000000000000000000000000000000000000000 7!
b0000000000000000 9!
b0000000000000000000000000000000000000000000000000000000000000000 :!
b0000000000000000 <!
b0000000000000000 =!
0>!
b0000000000000000000000000000000000000000000000000000000000000000 ?!
b00000000 A!
b0000000000000000000000000000000000000000000000000000000000000000 B!
b00000000000000000000000000000000 D!
b00000000000000000000000000000000 E!
b00000000 F!
b00000000 G!
b000000000000 H!
b00000000 I!
b00000000 J!
b0000000000000000 K!
b0000000000000000 L!
b0000000000000000 M!
b00000000000000000000000000000000 N!
b00000000000000000000000000000000 O!
b00000000000000000000000000000000 P!
0Q!
0R!
b00000000000000000000000001000000 S!
b00000000000000000000000000001000 T!
b00000000000000000000010000000000 U!
b00000000000000000000001000000000 V!
b00000000000000000000000000010000 W!
b00000000000000000000000001100100 X!
b00000000000000000000001111101000 Y!
0Z!
b00000000000000000000000000000000000000000000000000000000000000000000000000000000000000000000000000000000000000000000000000000000000000000000000000000000000000000000000000000000000000000000000000000000000000000000000000000000000000000000000000000000000000000000000000000000000000000000000000000000000000000000000000000000000000000000000000000000000000000000000000000000000000000000000000000000000000000000000000000000000000000000000000000000000000000000000000000000000000000000000000000000000000000000000000000000 [!
0k!
b00000000000000000000000000000000 l!
b00000000000000000000000000000000 m!
0n!
b00000000000000000000000000000000 o!
1p!
b00000000000000000000000000000000000000000000000000000000000000000 q!
b00000010 t!
0u!
b00000000000000000000000000000000 v!
b00000000000000000000000100000000 w!
b00000000000000000001000000000000 x!
b00000000000000000000000000001001 y!
b00000000 z!
b00 {!
b01 |!
b10 }!
b11 ~!
b00000000000000000000000001000000 !"
b00000000000000000000000000001000 ""
b00000000000000000000000000100000 #"
#5000
1o
b00000000000000000000000000000001 p
1x
b00000000000000000000000000001000 D!
b00000000000000000000000100000000 E!
1Q!
1R!
#10000
0Q!
#15000
b00000000000000000000000000000010 p
1Q!
#20000
0Q!
#25000
b00000000000000000000000000000011 p
1Q!
#30000
0Q!
#35000
b00000000000000000000000000000100 p
1Q!
#40000
0Q!
#45000
b00000000000000000000000000000101 p
1Q!
#50000
0Q!
#55000
b00000000000000000000000000000110 p
1Q!
#60000
0Q!
#65000
b00000000000000000000000000000111 p
1Q!
#70000
0Q!
#75000
b00000000000000000000000000001000 p
1Q!
#80000
0Q!
#85000
b00000000000000000000000000001001 p
1Q!
#90000
0Q!
#95000
b00000000000000000000000000001010 p
1Q!
#100000
0Q!
#105000
b00000000000000000000000000001011 p
1Q!
#110000
0Q!
#115000
b00000000000000000000000000001100 p
1Q!
#120000
0Q!
#125000
b00000000000000000000000000001101 p
1Q!
#130000
0Q!
#135000
b00000000000000000000000000001110 p
1Q!
#140000
0Q!
#145000
b00000000000000000000000000001111 p
1Q!
#150000
0Q!
#155000
b00000000000000000000000000010000 p
1Q!
#160000
0Q!
#165000
b00000000000000000000000000010001 p
1Q!
#170000
0Q!
#175000
b00000000000000000000000000010010 p
1Q!
#180000
0Q!
#185000
b00000000000000000000000000010011 p
1Q!
#190000
0Q!
#195000
b00000000000000000000000000010100 p
1Q!
#200000
0Q!
#205000
b00000000000000000000000000010101 p
1Q!
#210000
0Q!
#215000
b00000000000000000000000000010110 p
1Q!
#220000
0Q!
#225000
b00000000000000000000000000010111 p
1Q!
#230000
0Q!
#235000
b00000000000000000000000000011000 p
1Q!
#240000
0Q!
#245000
b00000000000000000000000000011001 p
1Q!
#250000
0Q!
#255000
b00000000000000000000000000011010 p
1Q!
#260000
0Q!
#265000
b00000000000000000000000000011011 p
1Q!
#270000
0Q!
#275000
b00000000000000000000000000011100 p
1Q!
#280000
0Q!
#285000
b00000000000000000000000000011101 p
1Q!
#290000
0Q!
#295000
b00000000000000000000000000011110 p
1Q!
#300000
0Q!
#305000
b00000000000000000000000000011111 p
1Q!
#310000
0Q!
#315000
b00000000000000000000000000100000 p
1Q!
#320000
0Q!
#325000
b00000000000000000000000000100001 p
1Q!
#330000
0Q!
#335000
1#
b00000000000000000000000000100010 p
1q
14!
1Q!
#340000
0Q!
#345000
b00000000000000000000000000100011 p
1Q!
#350000
0Q!
#355000
b00000000000000000000000000100100 p
1Q!
#360000
0Q!
#365000
b00000000000000000000000000100101 p
1Q!
#370000
0Q!
#375000
b00000000000000000000000000100110 p
1Q!
#380000
0Q!
#385000
b00000000000000000000000000100111 p
1Q!
#390000
0Q!
#395000
b00000000000000000000000000101000 p
1Q!
#400000
0Q!
#405000
b00000000000000000000000000101001 p
1Q!
#410000
0Q!
#415000
b00000000000000000000000000101010 p
1Q!
#420000
0Q!
#425000
b00000000000000000000000000101011 p
1Q!
#430000
0Q!
#435000
b00000000000000000000000000101100 p
1Q!
#440000
0Q!
#445000
b00000000000000000000000000101101 p
1Q!
#450000
0Q!
#455000
b00000000000000000000000000101110 p
1Q!
#460000
0Q!
#465000
b00000000000000000000000000101111 p
1Q!
#470000
0Q!
#475000
b00000000000000000000000000110000 p
1Q!
#480000
0Q!
#485000
b00000000000000000000000000110001 p
1Q!
#490000
0Q!
#495000
b00000000000000000000000000110010 p
1Q!
#500000
0Q!
#505000
b00000000000000000000000000110011 p
1Q!
#510000
0Q!
#515000
b00000000000000000000000000110100 p
1Q!
#520000
0Q!
#525000
b00000000000000000000000000110101 p
1Q!
#530000
0Q!
#535000
b00000000000000000000000000110110 p
1Q!
#540000
0Q!
#545000
b00000000000000000000000000110111 p
1Q!
#550000
0Q!
#555000
b00000000000000000000000000111000 p
1Q!
#560000
0Q!
#565000
b00000000000000000000000000111001 p
1Q!
#570000
0Q!
#575000
b00000000000000000000000000111010 p
1Q!
#580000
0Q!
#585000
b00000000000000000000000000111011 p
1Q!
#590000
0Q!
#595000
b00000000000000000000000000111100 p
1Q!
#600000
0Q!
#605000
b00000000000000000000000000111101 p
1Q!
#610000
0Q!
#615000
b00000000000000000000000000111110 p
1Q!
#620000
0Q!
#625000
b00000000000000000000000000111111 p
1Q!
#630000
0Q!
#635000
b0000000000000000000000000100000000000000000000000000001000000001 5
b00010000 7
b00010001 8
b00010010 9
b00010011 :
b00010100 ;
b00010101 <
b00010110 =
b00010111 >
b00011000 ?
b00011001 @
b00011010 A
b00011011 B
b00011100 C
b00011101 D
b00011110 E
b00011111 F
b00000000000000000000000001000000 p
1Q!
#640000
0Q!
#645000
b100010111000101100001010100010100000100110001001000010001000100001111111100000000000000000000000001000000000000000000000000000010000000010 $
1.
b0001011100010110000101010001010000010011000100100001000100010000 /
b11111111 1
b0000000000000000000000000100000000000000000000000000001000000001 2
b00000000000000000000000001000001 p
b01 '!
0*!
1+!
1/!
b0000000000001000 1!
b0000000000000000000000000100000000000000000000000000001000000001 2!
1Q!
#650000
0Q!
#655000
b100011111000111100001110100011100000110110001101000011001000110001111111100000000000000000000000001000000000000000000000000000010000000011 $
b0001111100011110000111010001110000011011000110100001100100011000 /
14
b00000000000000000000000001000010 p
b10 '!
0+!
1,!
b0000000000010000 1!
1Q!
#660000
0Q!
#665000
b000011111000111100001110100011100000110110001101000011001000110001111111100000000000000000000000001000000000000000000000000000010000000010 $
0.
04
b00000000000000000000000001000011 p
b00 '!
1*!
0,!
0/!
10!
b0000000000000000000000000000000000000000000000000000000000000001 5!
b0000000000010000 9!
b0000000000000000000000000100000000000000000000000000001000000001 :!
b00000000000000000000000000000000 D!
b001000000001 H!
b00000000000000000000000000000001 O!
1Q!
#670000
0Q!
#675000
b00000000000000000000000001000100 p
b11 )!
0-!
1.!
b0000000000000010 =!
b00000000000000000000000000001000 D!
1Q!
#680000
0Q!
#685000
b00000000000000000000000001000101 p
b100010111000101100001010100010100000100110001001000010001000100001111111100000000000000000000000001000000000000000000000000000010000000010 y
1~
b0001011100010110000101010001010000010011000100100001000100010000 !!
b11111111 #!
b0000000000000000000000000100000000000000000000000000001000000001 $!
b0000000000000001 <!
1>!
b0001011100010110000101010001010000010011000100100001000100010000 ?!
b11111111 A!
b0000000000000000000000000100000000000000000000000000001000000001 B!
b0000000000010000 L!
b0000000000001000 M!
b00000000000000000000000000001000 N!
1Q!
#690000
0Q!
#695000
b00000000000000000000000001000110 p
b100011111000111100001110100011100000110110001101000011001000110001111111100000000000000000000000000000000000000000000000000000000000000001 y
b0001111100011110000111010001110000011011000110100001100100011000 !!
b0000000000000000000000000000000000000000000000000000000000000000 $!
1&!
b00 )!
1-!
0.!
00!
b0000000000000010 <!
b0001111100011110000111010001110000011011000110100001100100011000 ?!
b0000000000000000000000000000000000000000000000000000000000000000 B!
b0000000000001000 K!
b0000000000001000 L!
1Q!
#700000
0Q!
#705000
b00000000000000000000000001000111 p
b000011111000111100001110100011100000110110001101000011001000110001111111100000000000000000000000000000000000000000000000000000000000000000 y
0~
0&!
1Q!
#710000
0Q!
#715000
b00000000000000000000000001001000 p
1Q!
#720000
0Q!
#725000
b00000000000000000000000001001001 p
1Q!
#730000
0Q!
#735000
b00000000000000000000000001001010 p
1Q!
#740000
0Q!
#745000
b00000000000000000000000001001011 p
1Q!
#750000
0Q!
#755000
b00000000000000000000000001001100 p
1Q!
#760000
0Q!
#765000
b00000000000000000000000001001101 p
1Q!
#770000
0Q!
#775000
b00000000000000000000000001001110 p
1Q!
#780000
0Q!
#785000
b00000000000000000000000001001111 p
1Q!
#790000
0Q!
#795000
b00000000000000000000000001010000 p
1Q!
#800000
0Q!
#805000
b00000000000000000000000001010001 p
1Q!
#810000
0Q!
#815000
b00000000000000000000000001010010 p
1Q!
#820000
0Q!
#825000
b00000000000000000000000001010011 p
1Q!
#830000
0Q!
#835000
b00000000000000000000000001010100 p
1Q!
#840000
0Q!
#845000
b00000000000000000000000001010101 p
1Q!
#850000
0Q!
#855000
b00000000000000000000000001010110 p
1Q!
#860000
0Q!
#865000
b00000000000000000000000001010111 p
1Q!
#870000
0Q!
#875000
b00000000000000000000000001011000 p
1Q!
#880000
0Q!
#885000
b00000000000000000000000001011001 p
1Q!
#890000
0Q!
#895000
b00000000000000000000000001011010 p
1Q!
#900000
0Q!
#905000
b00000000000000000000000001011011 p
1Q!
#910000
0Q!
#915000
b00000000000000000000000001011100 p
1Q!
#920000
0Q!
#925000
b00000000000000000000000001011101 p
1Q!
#930000
0Q!
#935000
b00000000000000000000000001011110 p
1Q!
#940000
0Q!
#945000
b00000000000000000000000001011111 p
1Q!
#950000
0Q!
#955000
b00000000000000000000000001100000 p
1Q!
#960000
0Q!
#965000
b00000000000000000000000001100001 p
1Q!
#970000
0Q!
#975000
b00000000000000000000000001100010 p
1Q!
#980000
0Q!
#985000
b00000000000000000000000001100011 p
1Q!
#990000
0Q!
#995000
b00000000000000000000000001100100 p
1Q!
